** Profile: "SCHEMATIC1-prelab_tests"  [ C:\USERS\JOE\OneDrive\College\Current Coursework\ECEN-325\Labs\lab_10_prelab-PSpiceFiles\SCHEMATIC1\prelab_tests.sim ] 

** Creating circuit file "prelab_tests.cir" 
** WARNING: THIS AUTOMATICALLY GENERATED FILE MAY BE OVERWRITTEN BY SUBSEQUENT SIMULATIONS

*Libraries: 
* Profile Libraries :
* Local Libraries :
* From [PSPICE NETLIST] section of C:\Users\Joe\AppData\Roaming\SPB_Data\cdssetup\OrCAD_PSpice\17.2.0\PSpice.ini file:
.lib "nomd.lib" 

*Analysis directives: 
.DC LIN V_V1 0 5 0.001 
+ LIN V_V2 3 5 0.5 
.OPTIONS ADVCONV
.PROBE64 V(alias(*)) I(alias(*)) W(alias(*)) D(alias(*)) NOISE(alias(*)) 
.INC "..\SCHEMATIC1.net" 


.END
