5,21.504
6,18.076
7,15.518
8,13.959
9,11.984
10,10.75
11,9.899
12,8.949
13,8.297
14,7.719
15,7.301
16,6.725
17,6.416
18,6.012
19,5.717
20,5.904
21,5.379
22,4.929
23,4.723
24,4.555
25,4.351
26,4.231
27,4.067
28,3.89
29,3.801
30,3.833
31,3.548
32,3.5231,107.36
