100
94
62
15
24
2
72
12
73
98
71
72
63
13
43
61
78
2
42
99
85
56
11
98
27
33
81
23
37
7
35
22
100
49
36
75
50
59
39
23
56
9
46
70
73
41
31
50
94
24
100
30
79
62
27
58
47
59
32
83
17
66
56
68
14
43
43
16
1
81
90
8
41
87
78
13
27
60
14
20
83
65
50
13
27
28
70
73
39
1
7
55
19
14
75
84
56
17
51
8
49
