@(#)$CDS: LVS version 6.1.7-64b 01/24/2017 19:46 (sjfhw310) $

Command line: /softwares/Linux/cadence/IC617/tools.lnx86/dfII/bin/64bit/LVS -dir /home/ugrads/j/jwstone/ECEN-454/LVS -l -s -t /home/ugrads/j/jwstone/ECEN-454/LVS/layout /home/ugrads/j/jwstone/ECEN-454/LVS/schematic
Like matching is enabled.
Net swapping is enabled.
Using terminal names as correspondence points.
Compiling Diva LVS rules...

    Net-list summary for /home/ugrads/j/jwstone/ECEN-454/LVS/layout/netlist
       count
        6               nets
        5               terminals
        2               pmos
        2               nmos

    Net-list summary for /home/ugrads/j/jwstone/ECEN-454/LVS/schematic/netlist
       count
        6               nets
        5               terminals
        2               pmos
        2               nmos


    Terminal correspondence points
    N4        N0        A
    N3        N1        B
    N2        N5        GND
    N5        N3        VDD
    N1        N2        Y

Devices in the netlist but not in the rules:
        pcapacitor
Devices in the rules but not in the netlist:
        cap nfet pfet nmos4 pmos4

The net-lists match.

                             layout  schematic
                                instances
        un-matched              0       0      
        rewired                 0       0      
        size errors             0       0      
        pruned                  0       0      
        active                  4       4      
        total                   4       4      

                                  nets
        un-matched              0       0      
        merged                  0       0      
        pruned                  0       0      
        active                  6       6      
        total                   6       6      

                                terminals
        un-matched              0       0      
        matched but
        different type          0       0      
        total                   5       5      


Probe files from /home/ugrads/j/jwstone/ECEN-454/LVS/schematic

devbad.out:

netbad.out:

mergenet.out:

termbad.out:

prunenet.out:

prunedev.out:

audit.out:


Probe files from /home/ugrads/j/jwstone/ECEN-454/LVS/layout

devbad.out:

netbad.out:

mergenet.out:

termbad.out:

prunenet.out:

prunedev.out:

audit.out:
